strict digraph "irreduciblePEGs/red_qmf23_5d_PEG3200_optRep0_sym0_cluPeak0_topTieBrk0_term0.dot" {
  36 [label="AF_f1" peak="6" impact="0"];
  67 [label="AP_f1" peak="8" impact="1"];
  68 [label="AP_f2" peak="8" impact="1"];
  69 [label="AP_f3" peak="8" impact="-2"];
  147 [label="AV_f1" peak="6" impact="0"];
  150 [label="AV_f4" peak="6" impact="0"];
  152 [label="AV_f6" peak="6" impact="-9"];
  196 [label="BN_f1" peak="8" impact="1"];
  198 [label="BN_f3" peak="8" impact="-2"];
  240 [label="BQ_f1" peak="6" impact="0"];
  242 [label="BQ_f3" peak="8" impact="1"];
  255 [label="BV_f4" peak="6" impact="0"];
  258 [label="BV_f7" peak="6" impact="0"];
  314 [label="CF_f1" peak="8" impact="1"];
  315 [label="CF_f2" peak="8" impact="1"];
  316 [label="CF_f3" peak="8" impact="-2"];
  318 [label="CF_f5" peak="8" impact="1"];
  319 [label="CF_f6" peak="8" impact="1"];
  320 [label="CF_f7" peak="8" impact="-2"];
  375 [label="CI_f1" peak="6" impact="0"];
  377 [label="CI_f3" peak="6" impact="0"];
  378 [label="CI_f4" peak="6" impact="0"];
  379 [label="CI_f5" peak="6" impact="-3"];
  381 [label="CI_f7" peak="6" impact="-3"];
  355 [label="BU_f5" peak="9" impact="2"];
  358 [label="BU_f8" peak="8" impact="-2"];
  359 [label="BU_f9" peak="8" impact="1"];
  360 [label="BU_f10" peak="8" impact="1"];
  362 [label="BU_f12" peak="8" impact="-2"];
  474 [label="CL_f4" peak="6" impact="-3"];
  487 [label="CL_f17" peak="6" impact="-3"];
  640 [label="CO_f26" peak="6" impact="-36"];
  700 [label="DJ_f1" peak="8" impact="1"];
  702 [label="DJ_f3" peak="8" impact="-2"];
  744 [label="DM_f1" peak="6" impact="0"];
  746 [label="DM_f3" peak="8" impact="1"];
  759 [label="DR_f4" peak="6" impact="0"];
  762 [label="DR_f7" peak="6" impact="0"];
  818 [label="EB_f1" peak="8" impact="1"];
  819 [label="EB_f2" peak="8" impact="1"];
  820 [label="EB_f3" peak="8" impact="-2"];
  822 [label="EB_f5" peak="8" impact="1"];
  823 [label="EB_f6" peak="8" impact="1"];
  824 [label="EB_f7" peak="8" impact="-2"];
  880 [label="EE_f2" peak="6" impact="0"];
  882 [label="EE_f4" peak="6" impact="0"];
  855 [label="DQ_f1" peak="10" impact="0"];
  859 [label="DQ_f5" peak="9" impact="2"];
  862 [label="DQ_f8" peak="8" impact="-2"];
  863 [label="DQ_f9" peak="8" impact="1"];
  864 [label="DQ_f10" peak="8" impact="1"];
  866 [label="DQ_f12" peak="8" impact="-2"];
  1028 [label="EH_f18" peak="6" impact="-6"];
  930 [label="CT_f28" peak="15" impact="9"];
  1047 [label="EP_f1" peak="6" impact="0"];
  1109 [label="EZ_f1" peak="8" impact="1"];
  1110 [label="EZ_f2" peak="8" impact="1"];
  1111 [label="EZ_f3" peak="8" impact="-2"];
  1113 [label="EZ_f5" peak="8" impact="1"];
  1205 [label="FC_f9" peak="6" impact="-9"];
  1131 [label="EM_f7" peak="8" impact="1"];
  1134 [label="EM_f10" peak="8" impact="-2"];
  1152 [label="EM_f28" peak="8" impact="1"];
  1155 [label="EM_f31" peak="8" impact="-2"];
  1224 [label="FH_f4" peak="9" impact="2"];
  1227 [label="FH_f7" peak="8" impact="1"];
  1233 [label="FH_f13" peak="10" impact="0"];
  1236 [label="FH_f16" peak="6" impact="0"];
  1239 [label="FH_f19" peak="6" impact="-9"];
  1345 [label="FR_f1" peak="8" impact="1"];
  1346 [label="FR_f2" peak="8" impact="1"];
  1347 [label="FR_f3" peak="8" impact="-2"];
  1349 [label="FR_f5" peak="8" impact="1"];
  1350 [label="FR_f6" peak="8" impact="1"];
  1351 [label="FR_f7" peak="8" impact="-2"];
  1353 [label="FR_f9" peak="8" impact="1"];
  1354 [label="FR_f10" peak="8" impact="1"];
  1355 [label="FR_f11" peak="8" impact="-2"];
  1357 [label="FR_f13" peak="8" impact="1"];
  1358 [label="FR_f14" peak="8" impact="1"];
  1359 [label="FR_f15" peak="8" impact="-2"];
  1467 [label="FU_f1" peak="6" impact="0"];
  1468 [label="FU_f2" peak="6" impact="0"];
  1470 [label="FU_f4" peak="6" impact="0"];
  1474 [label="FU_f8" peak="6" impact="-18"];
  1479 [label="FU_f13" peak="6" impact="-6"];
  1486 [label="FU_f20" peak="6" impact="-18"];
  1426 [label="FG_f8" peak="8" impact="-2"];
  1428 [label="FG_f10" peak="9" impact="-1"];
  1435 [label="FG_f17" peak="9" impact="2"];
  1438 [label="FG_f20" peak="8" impact="-2"];
  1439 [label="FG_f21" peak="8" impact="1"];
  1440 [label="FG_f22" peak="9" impact="-1"];
  1650 [label="FX_f1" peak="6" impact="-3"];
  1653 [label="FX_f4" peak="6" impact="-9"];
  1654 [label="FX_f5" peak="6" impact="-9"];
  1659 [label="FX_f10" peak="6" impact="-9"];
  1665 [label="FX_f16" peak="6" impact="-24"];
  1587 [label="EL_f10" peak="8" impact="1"];
  1590 [label="EL_f13" peak="10" impact="0"];
  1594 [label="EL_f17" peak="9" impact="2"];
  1597 [label="EL_f20" peak="8" impact="-2"];
  1598 [label="EL_f21" peak="10" impact="0"];
  1606 [label="EL_f29" peak="9" impact="2"];
  1609 [label="EL_f32" peak="8" impact="-2"];
  1610 [label="EL_f33" peak="10" impact="0"];
  1949 [label="GA_f12" peak="6" impact="-15"];
  1844 [label="CS_f15" peak="15" impact="9"];
  1846 [label="CS_f17" peak="15" impact="9"];
  1848 [label="CS_f19" peak="33" impact="27"];
  1854 [label="CS_f25" peak="24" impact="18"];
  1860 [label="CS_f31" peak="33" impact="27"];
  1872 [label="CS_f43" peak="24" impact="18"];
  1878 [label="CS_f49" peak="33" impact="27"];
  2942 [label="GF_f6" peak="6" impact="-6"];
  2948 [label="GF_f12" peak="6" impact="-3"];
  2951 [label="GF_f15" peak="6" impact="-6"];
  3071 [label="GF_f135" peak="6" impact="-9"];
  3074 [label="GF_f138" peak="6" impact="-3"];
  3086 [label="GF_f150" peak="6" impact="-24"];
  2694 [label="A_f1" peak="69" impact="63"];
  2856 [label="A_f163" peak="33" impact="27"];
  2901 [label="A_f208" peak="15" impact="9"];

  36 -> 68 [weight="2"];
  36 -> 147 [weight="2"];
  67 -> 36 [weight="3"];
  68 -> 150 [weight="5"];
  69 -> 152 [weight="0"];
  147 -> 150 [weight="0"];
  147 -> 1650 [weight="0"];
  150 -> 69 [weight="4"];
  150 -> 1654 [weight="0"];
  152 -> 381 [weight="0"];
  196 -> 240 [weight="2"];
  198 -> 381 [weight="0"];
  240 -> 242 [weight="0"];
  240 -> 1650 [weight="0"];
  242 -> 198 [weight="0"];
  242 -> 474 [weight="0"];
  255 -> 378 [weight="1"];
  255 -> 358 [weight="0"];
  258 -> 381 [weight="1"];
  258 -> 360 [weight="2"];
  314 -> 375 [weight="2"];
  314 -> 315 [weight="2"];
  315 -> 377 [weight="1"];
  316 -> 378 [weight="4"];
  318 -> 381 [weight="2"];
  318 -> 319 [weight="2"];
  319 -> 320 [weight="4"];
  319 -> 3074 [weight="1"];
  320 -> 487 [weight="7"];
  375 -> 377 [weight="0"];
  375 -> 1650 [weight="2"];
  377 -> 316 [weight="0"];
  377 -> 2948 [weight="0"];
  378 -> 318 [weight="0"];
  378 -> 379 [weight="0"];
  379 -> 1659 [weight="0"];
  381 -> 1479 [weight="0"];
  355 -> 316 [weight="2"];
  355 -> 255 [weight="2"];
  358 -> 359 [weight="2"];
  359 -> 258 [weight="3"];
  359 -> 318 [weight="0"];
  360 -> 362 [weight="5"];
  360 -> 319 [weight="2"];
  362 -> 320 [weight="7"];
  474 -> 1949 [weight="0"];
  487 -> 1028 [weight="0"];
  700 -> 744 [weight="2"];
  702 -> 1479 [weight="0"];
  744 -> 746 [weight="0"];
  744 -> 1650 [weight="0"];
  746 -> 702 [weight="0"];
  746 -> 1949 [weight="0"];
  759 -> 882 [weight="1"];
  759 -> 862 [weight="0"];
  762 -> 866 [weight="0"];
  762 -> 1479 [weight="0"];
  818 -> 819 [weight="0"];
  818 -> 1650 [weight="0"];
  819 -> 880 [weight="1"];
  820 -> 882 [weight="4"];
  822 -> 823 [weight="2"];
  822 -> 1479 [weight="0"];
  823 -> 824 [weight="4"];
  823 -> 3074 [weight="1"];
  824 -> 1028 [weight="7"];
  880 -> 820 [weight="0"];
  880 -> 2951 [weight="0"];
  882 -> 822 [weight="0"];
  882 -> 379 [weight="0"];
  855 -> 818 [weight="0"];
  855 -> 1848 [weight="0"];
  855 -> 700 [weight="0"];
  855 -> 314 [weight="0"];
  855 -> 67 [weight="0"];
  855 -> 196 [weight="0"];
  855 -> 1109 [weight="0"];
  859 -> 820 [weight="2"];
  859 -> 759 [weight="2"];
  862 -> 863 [weight="2"];
  863 -> 864 [weight="2"];
  863 -> 762 [weight="3"];
  863 -> 822 [weight="0"];
  864 -> 866 [weight="5"];
  864 -> 823 [weight="2"];
  866 -> 824 [weight="7"];
  1028 -> 1239 [weight="0"];
  930 -> 859 [weight="2"];
  930 -> 1597 [weight="0"];
  930 -> 355 [weight="2"];
  930 -> 1860 [weight="0"];
  930 -> 375 [weight="0"];
  930 -> 880 [weight="0"];
  1047 -> 1587 [weight="2"];
  1047 -> 1467 [weight="0"];
  1047 -> 1109 [weight="0"];
  1109 -> 1650 [weight="1"];
  1109 -> 1110 [weight="0"];
  1110 -> 1653 [weight="1"];
  1110 -> 1111 [weight="0"];
  1111 -> 1659 [weight="0"];
  1111 -> 1113 [weight="0"];
  1113 -> 1152 [weight="2"];
  1113 -> 1479 [weight="2"];
  1205 -> 3086 [weight="0"];
  1131 -> 1047 [weight="2"];
  1131 -> 1345 [weight="1"];
  1134 -> 1110 [weight="2"];
  1134 -> 1426 [weight="0"];
  1134 -> 1590 [weight="0"];
  1134 -> 1470 [weight="0"];
  1152 -> 1205 [weight="1"];
  1152 -> 1155 [weight="7"];
  1155 -> 1239 [weight="6"];
  1224 -> 1426 [weight="0"];
  1224 -> 1347 [weight="3"];
  1227 -> 1428 [weight="0"];
  1227 -> 1349 [weight="0"];
  1233 -> 1435 [weight="0"];
  1233 -> 1353 [weight="0"];
  1236 -> 1438 [weight="0"];
  1236 -> 3086 [weight="1"];
  1239 -> 1486 [weight="1"];
  1345 -> 1467 [weight="3"];
  1345 -> 1346 [weight="2"];
  1346 -> 1468 [weight="1"];
  1347 -> 1470 [weight="5"];
  1349 -> 1659 [weight="2"];
  1349 -> 1350 [weight="0"];
  1350 -> 1474 [weight="1"];
  1350 -> 1351 [weight="4"];
  1351 -> 1353 [weight="0"];
  1351 -> 1665 [weight="5"];
  1353 -> 1479 [weight="2"];
  1353 -> 1354 [weight="2"];
  1354 -> 1355 [weight="4"];
  1354 -> 3071 [weight="1"];
  1355 -> 1357 [weight="0"];
  1355 -> 3086 [weight="4"];
  1357 -> 1358 [weight="2"];
  1357 -> 1239 [weight="0"];
  1358 -> 1486 [weight="1"];
  1358 -> 1359 [weight="4"];
  1359 -> 640 [weight="7"];
  1467 -> 1650 [weight="2"];
  1467 -> 1468 [weight="0"];
  1468 -> 1347 [weight="0"];
  1468 -> 2942 [weight="0"];
  1470 -> 1654 [weight="0"];
  1470 -> 1349 [weight="0"];
  1474 -> 1665 [weight="0"];
  1479 -> 3071 [weight="0"];
  1486 -> 640 [weight="0"];
  1426 -> 1227 [weight="2"];
  1428 -> 1350 [weight="0"];
  1428 -> 1233 [weight="0"];
  1435 -> 1355 [weight="2"];
  1435 -> 1236 [weight="2"];
  1438 -> 1439 [weight="2"];
  1439 -> 1440 [weight="2"];
  1439 -> 1357 [weight="0"];
  1440 -> 1358 [weight="0"];
  1650 -> 2942 [weight="0"];
  1653 -> 1654 [weight="0"];
  1654 -> 474 [weight="0"];
  1659 -> 1474 [weight="0"];
  1665 -> 152 [weight="0"];
  1587 -> 1134 [weight="5"];
  1587 -> 1224 [weight="2"];
  1590 -> 1594 [weight="0"];
  1594 -> 1111 [weight="3"];
  1594 -> 1597 [weight="4"];
  1594 -> 1227 [weight="0"];
  1597 -> 1598 [weight="2"];
  1598 -> 1606 [weight="0"];
  1598 -> 1113 [weight="0"];
  1598 -> 1233 [weight="0"];
  1606 -> 1609 [weight="4"];
  1606 -> 1152 [weight="2"];
  1606 -> 1236 [weight="0"];
  1609 -> 1610 [weight="2"];
  1610 -> 1155 [weight="3"];
  1610 -> 1439 [weight="0"];
  1949 -> 379 [weight="0"];
  1844 -> 1047 [weight="2"];
  1844 -> 1846 [weight="0"];
  1846 -> 1134 [weight="0"];
  1846 -> 855 [weight="0"];
  1848 -> 1854 [weight="0"];
  1848 -> 1590 [weight="4"];
  1854 -> 930 [weight="0"];
  1854 -> 1470 [weight="0"];
  1854 -> 1594 [weight="4"];
  1860 -> 36 [weight="0"];
  1860 -> 2856 [weight="0"];
  1860 -> 240 [weight="0"];
  1860 -> 759 [weight="0"];
  1860 -> 744 [weight="0"];
  1860 -> 255 [weight="0"];
  1872 -> 2901 [weight="0"];
  1872 -> 1606 [weight="0"];
  1878 -> 198 [weight="3"];
  1878 -> 362 [weight="0"];
  1878 -> 147 [weight="2"];
  1878 -> 702 [weight="0"];
  1878 -> 1610 [weight="0"];
  1878 -> 762 [weight="0"];
  2942 -> 2948 [weight="0"];
  2948 -> 2951 [weight="3"];
  2951 -> 1653 [weight="0"];
  3071 -> 3074 [weight="3"];
  3074 -> 1205 [weight="0"];
  3086 -> 487 [weight="0"];
  2694 -> 1131 [weight="2"];
  2694 -> 1844 [weight="1"];
  2856 -> 359 [weight="2"];
  2856 -> 1872 [weight="0"];
  2856 -> 863 [weight="0"];
  2856 -> 882 [weight="0"];
  2856 -> 378 [weight="0"];
  2856 -> 1598 [weight="0"];
  2901 -> 864 [weight="0"];
  2901 -> 1609 [weight="0"];
  2901 -> 1878 [weight="0"];
  2901 -> 258 [weight="2"];
}
