{
  "nodes": [
    [
      108,
      {
        "name": "AV_f9",
        "nodeMemCost": -3,
        "tmpMemInc": 6,
        "predNodes": [
          371,
          344,
          398,
          372,
          345,
          399,
          373,
          346,
          400,
          374,
          347,
          401,
          375,
          348,
          402,
          376,
          349,
          403,
          377,
          350,
          404,
          378,
          351,
          405,
          104,
          95,
          113,
          105,
          96,
          114,
          106,
          97,
          115,
          107,
          98,
          116,
          379,
          352,
          406
        ],
        "succNodes": [
          99,
          117,
          1287,
          1206,
          1368,
          1530
        ],
        "nbVisits": 0,
        "minSucc": -69,
        "asapTopoRank": 8,
        "alapTopoRank": 8
      }
    ],
    [
      155,
      {
        "name": "BX_f2",
        "nodeMemCost": 2,
        "tmpMemInc": 20,
        "predNodes": [
          151,
          153
        ],
        "succNodes": [
          159,
          157,
          161,
          201,
          204,
          208,
          248,
          242,
          254,
          249,
          243,
          255
        ],
        "nbVisits": 0,
        "minSucc": -4,
        "asapTopoRank": 6,
        "alapTopoRank": 7
      }
    ],
    [
      177,
      {
        "name": "CF_f1",
        "nodeMemCost": 2,
        "tmpMemInc": 20,
        "predNodes": [
          162,
          165,
          169
        ],
        "succNodes": [
          173,
          181,
          163,
          166,
          170,
          178,
          174,
          182,
          189,
          195,
          190,
          196,
          199,
          164,
          167,
          168,
          171,
          172,
          200,
          203,
          207,
          138,
          140,
          142,
          126,
          128,
          130,
          134,
          132,
          136,
          139,
          141,
          143,
          118,
          119,
          120,
          121,
          122,
          124,
          123,
          125,
          146,
          144,
          148,
          127,
          129,
          131,
          135,
          133,
          137,
          147,
          145,
          149,
          247,
          241,
          253,
          367,
          340,
          394,
          368,
          341,
          395,
          369,
          342,
          396,
          101,
          92,
          110,
          102,
          93,
          111,
          370,
          343,
          397,
          103,
          94,
          112
        ],
        "nbVisits": 0,
        "minSucc": -27,
        "asapTopoRank": 5,
        "alapTopoRank": 5
      }
    ],
    [
      206,
      {
        "name": "CI_f4",
        "nodeMemCost": -4,
        "tmpMemInc": 20,
        "predNodes": [
          202,
          179,
          175,
          183,
          180,
          176,
          184,
          205,
          209
        ],
        "succNodes": [
          210
        ],
        "nbVisits": 0,
        "minSucc": -135,
        "asapTopoRank": 7,
        "alapTopoRank": 9
      }
    ],
    [
      381,
      {
        "name": "CO_f15",
        "nodeMemCost": -135,
        "tmpMemInc": 24,
        "predNodes": [
          640,
          647,
          655,
          671,
          663,
          679,
          693,
          705,
          694,
          706,
          712,
          641,
          648,
          656,
          672,
          664,
          680,
          642,
          649,
          650,
          657,
          658,
          615,
          619,
          623,
          631,
          627,
          635,
          716,
          723,
          731,
          616,
          620,
          624,
          632,
          628,
          636,
          717,
          724,
          732,
          718,
          673,
          665,
          681,
          674,
          666,
          682,
          725,
          733,
          726,
          734,
          793,
          784,
          802,
          923,
          905,
          941,
          1311,
          1230,
          1392,
          1554,
          1312,
          1231,
          1393,
          1555,
          1313,
          1232,
          1394,
          1556,
          250,
          244,
          256,
          251,
          245,
          257,
          252,
          246,
          258,
          380,
          353,
          407
        ],
        "succNodes": [
          354,
          408,
          1314,
          1233,
          1395,
          1557,
          543,
          537,
          549,
          544,
          538,
          550,
          545,
          539,
          551,
          924,
          906,
          942,
          1315,
          1234,
          1396,
          1558,
          1316,
          1235,
          1397,
          1559,
          1317,
          1236,
          1398,
          1560,
          1318,
          1237,
          1399,
          1561,
          1319,
          1238,
          1400,
          1562,
          794,
          785,
          803,
          925,
          907,
          943,
          926,
          908,
          944,
          382,
          355,
          409,
          383,
          356,
          410,
          1320,
          1239,
          1401,
          1563,
          384,
          357,
          411,
          1321,
          1240,
          1402,
          1564,
          1322,
          1241,
          1403,
          1565,
          1323,
          1242,
          1404,
          1566,
          1324,
          1243,
          1405,
          1567,
          1325,
          1244,
          1406,
          1568,
          1326,
          1245,
          1407,
          1569,
          1327,
          1246,
          1408,
          1570,
          1328,
          1247,
          1409,
          1571,
          795,
          786,
          804,
          796,
          787,
          805,
          797,
          788,
          806,
          927,
          909,
          945,
          928,
          910,
          946,
          385,
          358,
          412,
          386,
          359,
          413,
          1329,
          1248,
          1410,
          1572,
          387,
          360,
          414,
          1330,
          1249,
          1411,
          1573,
          388,
          361,
          415,
          1331,
          1250,
          1412,
          1574,
          1332,
          1251,
          1413,
          1575,
          1333,
          1252,
          1414,
          1576,
          1334,
          1253,
          1415,
          1577,
          1335,
          1254,
          1416,
          1578,
          1336,
          1255,
          1417,
          1579,
          1337,
          1256,
          1418,
          1580,
          929,
          911,
          947,
          930,
          912,
          948,
          1338,
          1257,
          1419,
          1581,
          1339,
          1258,
          1420,
          1582,
          1340,
          1259,
          1421,
          1583,
          389,
          362,
          416,
          390,
          363,
          417,
          1341,
          1260,
          1422,
          1584,
          391,
          364,
          418,
          1342,
          1261,
          1423,
          1585,
          392,
          365,
          419,
          1343,
          1262,
          1424,
          1586,
          393,
          366,
          420,
          1344,
          1263,
          1425,
          1587,
          1345,
          1264,
          1426,
          1588,
          1346,
          1265,
          1427,
          1589,
          931,
          913,
          949,
          1347,
          1266,
          1428,
          1590,
          1348,
          1267,
          1429,
          1591,
          1349,
          1268,
          1430,
          1592,
          1350,
          1269,
          1431,
          1593,
          932,
          914,
          950,
          1351,
          1270,
          1432,
          1594,
          1352,
          1271,
          1433,
          1595,
          1353,
          1272,
          1434,
          1596,
          1354,
          1273,
          1435,
          1597,
          1355,
          1274,
          1436,
          1598
        ],
        "nbVisits": 0,
        "minSucc": 0,
        "asapTopoRank": 10,
        "alapTopoRank": 10
      }
    ],
    [
      326,
      {
        "name": "G_f14",
        "nodeMemCost": 12,
        "tmpMemInc": 24,
        "predNodes": [
          1478,
          992,
          1073,
          1154,
          272,
          299
        ],
        "succNodes": [
          217,
          218,
          219,
          231,
          237,
          1479,
          993,
          1074,
          1155,
          1480,
          994,
          1075,
          1156,
          1481,
          995,
          1076,
          1157,
          273,
          300,
          327,
          68,
          77,
          86,
          834,
          835,
          836,
          870,
          888
        ],
        "nbVisits": 0,
        "minSucc": -2,
        "asapTopoRank": 1,
        "alapTopoRank": 1
      }
    ],
    [
      448,
      {
        "name": "CY_f2",
        "nodeMemCost": 2,
        "tmpMemInc": 20,
        "predNodes": [
          505,
          508,
          512,
          444,
          446
        ],
        "succNodes": [
          421,
          424,
          422,
          425,
          423,
          426,
          427,
          429,
          428,
          430,
          451,
          449,
          453,
          432,
          434,
          436,
          440,
          438,
          442,
          452,
          450,
          454,
          540,
          534,
          546
        ],
        "nbVisits": 0,
        "minSucc": -27,
        "asapTopoRank": 5,
        "alapTopoRank": 5
      }
    ],
    [
      460,
      {
        "name": "DT_f2",
        "nodeMemCost": 2,
        "tmpMemInc": 20,
        "predNodes": [
          456,
          458
        ],
        "succNodes": [
          464,
          462,
          466,
          506,
          509,
          513
        ],
        "nbVisits": 0,
        "minSucc": -69,
        "asapTopoRank": 6,
        "alapTopoRank": 8
      }
    ],
    [
      482,
      {
        "name": "EB_f1",
        "nodeMemCost": 0,
        "tmpMemInc": 20,
        "predNodes": [
          467,
          470,
          474
        ],
        "succNodes": [
          478,
          486,
          494,
          500,
          495,
          501,
          504,
          468,
          471,
          475,
          483,
          479,
          487,
          469,
          472,
          473,
          476,
          477
        ],
        "nbVisits": 0,
        "minSucc": -2,
        "asapTopoRank": 4,
        "alapTopoRank": 4
      }
    ],
    [
      511,
      {
        "name": "EE_f4",
        "nodeMemCost": -4,
        "tmpMemInc": 20,
        "predNodes": [
          507,
          484,
          480,
          488,
          485,
          481,
          489,
          510,
          514
        ],
        "succNodes": [
          515
        ],
        "nbVisits": 0,
        "minSucc": -135,
        "asapTopoRank": 7,
        "alapTopoRank": 9
      }
    ],
    [
      499,
      {
        "name": "DP_f4",
        "nodeMemCost": 81,
        "tmpMemInc": 99,
        "predNodes": [
          519,
          525,
          531,
          492,
          498,
          455,
          457,
          459,
          463,
          461,
          465,
          493
        ],
        "succNodes": [
          503,
          1491,
          1005,
          1086,
          1167,
          1492,
          1006,
          1087,
          1168,
          1493,
          1007,
          1088,
          1169,
          277,
          304,
          331,
          1494,
          1008,
          1089,
          1170,
          1495,
          1009,
          1090,
          1171,
          1496,
          1010,
          1091,
          1172,
          278,
          305,
          332,
          1497,
          1011,
          1092,
          1173,
          1498,
          1012,
          1093,
          1174,
          1499,
          1013,
          1094,
          1175,
          279,
          306,
          333,
          69,
          78,
          87,
          70,
          79,
          88,
          843,
          844,
          845,
          873,
          891,
          846,
          847,
          848,
          874,
          892,
          1500,
          1014,
          1095,
          1176,
          1501,
          1015,
          1096,
          1177,
          1502,
          1016,
          1097,
          1178,
          280,
          307,
          334,
          1503,
          1017,
          1098,
          1179,
          1504,
          1018,
          1099,
          1180,
          849,
          850,
          851,
          875,
          893,
          520,
          526,
          532,
          1505,
          1019,
          1100,
          1181,
          281,
          308,
          335,
          1506,
          1020,
          1101,
          1182,
          1507,
          1021,
          1102,
          1183,
          1508,
          1022,
          1103,
          1184,
          282,
          309,
          336,
          71,
          80,
          89,
          852,
          853,
          854,
          876,
          894,
          1509,
          1023,
          1104,
          1185,
          1510,
          1024,
          1105,
          1186,
          1511,
          1025,
          1106,
          1187,
          283,
          310,
          337,
          1512,
          1026,
          1107,
          1188,
          1513,
          1027,
          1108,
          1189,
          1514,
          1028,
          1109,
          1190,
          284,
          311,
          338,
          1515,
          1029,
          1110,
          1191,
          1516,
          1030,
          1111,
          1192,
          1517,
          1031,
          1112,
          1193,
          285,
          312,
          339,
          72,
          81,
          90,
          12,
          15,
          18,
          13,
          16,
          19,
          14,
          17,
          20,
          0,
          1,
          2,
          4,
          3,
          5,
          223,
          224,
          225,
          233,
          239,
          226,
          227,
          228,
          234,
          240,
          48,
          49,
          50,
          54,
          56,
          51,
          52,
          53,
          55,
          57,
          30,
          31,
          32,
          34,
          33,
          35,
          6,
          7,
          8,
          10,
          9,
          11,
          24,
          21,
          27,
          25,
          22,
          28,
          26,
          23,
          29,
          855,
          856,
          857,
          877,
          895,
          858,
          859,
          860,
          878,
          896,
          36,
          38,
          40,
          44,
          42,
          46,
          60,
          58,
          62,
          37,
          39,
          41,
          45,
          43,
          47,
          61,
          59,
          63,
          100,
          91,
          109,
          521,
          527,
          533
        ],
        "nbVisits": 0,
        "minSucc": -2,
        "asapTopoRank": 3,
        "alapTopoRank": 3
      }
    ],
    [
      541,
      {
        "name": "EH_f2",
        "nodeMemCost": -69,
        "tmpMemInc": 18,
        "predNodes": [],
        "succNodes": [
          535,
          547,
          542,
          536,
          548,
          918,
          900,
          936,
          1288,
          1207,
          1369,
          1531,
          1289,
          1208,
          1370,
          1532,
          1290,
          1209,
          1371,
          1533,
          1291,
          1210,
          1372,
          1534,
          1292,
          1211,
          1373,
          1535,
          919,
          901,
          937,
          920,
          902,
          938,
          921,
          903,
          939,
          922,
          904,
          940,
          1293,
          1212,
          1374,
          1536,
          1294,
          1213,
          1375,
          1537,
          1295,
          1214,
          1376,
          1538,
          1296,
          1215,
          1377,
          1539,
          1297,
          1216,
          1378,
          1540,
          1298,
          1217,
          1379,
          1541,
          1299,
          1218,
          1380,
          1542,
          1300,
          1219,
          1381,
          1543,
          1301,
          1220,
          1382,
          1544,
          1302,
          1221,
          1383,
          1545,
          1303,
          1222,
          1384,
          1546,
          1304,
          1223,
          1385,
          1547,
          1305,
          1224,
          1386,
          1548,
          1306,
          1225,
          1387,
          1549,
          1307,
          1226,
          1388,
          1550,
          1308,
          1227,
          1389,
          1551,
          1309,
          1228,
          1390,
          1552,
          1310,
          1229,
          1391,
          1553
        ],
        "nbVisits": 0,
        "minSucc": -135,
        "asapTopoRank": 9,
        "alapTopoRank": 9
      }
    ],
    [
      602,
      {
        "name": "FB_f1",
        "nodeMemCost": 2,
        "tmpMemInc": 20,
        "predNodes": [],
        "succNodes": [
          605,
          609
        ],
        "nbVisits": 0,
        "minSucc": -2,
        "asapTopoRank": 3,
        "alapTopoRank": 4
      }
    ],
    [
      603,
      {
        "name": "FB_f2",
        "nodeMemCost": -2,
        "tmpMemInc": 22,
        "predNodes": [],
        "succNodes": [
          606,
          610,
          604,
          581,
          577,
          585,
          582,
          578,
          586,
          607,
          611,
          608,
          612
        ],
        "nbVisits": 0,
        "minSucc": -9,
        "asapTopoRank": 6,
        "alapTopoRank": 6
      }
    ],
    [
      579,
      {
        "name": "EZ_f1",
        "nodeMemCost": 2,
        "tmpMemInc": 16,
        "predNodes": [
          564,
          567,
          571
        ],
        "succNodes": [
          575,
          583
        ],
        "nbVisits": 0,
        "minSucc": -2,
        "asapTopoRank": 1,
        "alapTopoRank": 3
      }
    ],
    [
      595,
      {
        "name": "EN_f3",
        "nodeMemCost": 2,
        "tmpMemInc": 14,
        "predNodes": [
          589
        ],
        "succNodes": [
          552,
          554,
          556,
          560,
          558,
          562
        ],
        "nbVisits": 0,
        "minSucc": -2,
        "asapTopoRank": 2,
        "alapTopoRank": 3
      }
    ],
    [
      600,
      {
        "name": "EO_f2",
        "nodeMemCost": -2,
        "tmpMemInc": 12,
        "predNodes": [
          590,
          596
        ],
        "succNodes": [],
        "nbVisits": 0,
        "minSucc": -2,
        "asapTopoRank": 4,
        "alapTopoRank": 4
      }
    ],
    [
      630,
      {
        "name": "FL_f2",
        "nodeMemCost": -2,
        "tmpMemInc": 12,
        "predNodes": [
          744,
          762,
          775,
          687,
          699,
          688,
          700,
          709,
          614,
          618,
          622
        ],
        "succNodes": [
          626,
          634
        ],
        "nbVisits": 0,
        "minSucc": -2,
        "asapTopoRank": 2,
        "alapTopoRank": 2
      }
    ],
    [
      713,
      {
        "name": "FT_f1",
        "nodeMemCost": 2,
        "tmpMemInc": 20,
        "predNodes": [],
        "succNodes": [
          719,
          727
        ],
        "nbVisits": 0,
        "minSucc": -2,
        "asapTopoRank": 2,
        "alapTopoRank": 4
      }
    ],
    [
      714,
      {
        "name": "FT_f2",
        "nodeMemCost": -2,
        "tmpMemInc": 22,
        "predNodes": [],
        "succNodes": [
          720,
          728,
          715,
          721,
          729,
          722,
          730
        ],
        "nbVisits": 0,
        "minSucc": -9,
        "asapTopoRank": 4,
        "alapTopoRank": 6
      }
    ],
    [
      667,
      {
        "name": "FR_f1",
        "nodeMemCost": 2,
        "tmpMemInc": 16,
        "predNodes": [
          637,
          643,
          651
        ],
        "succNodes": [
          659,
          675
        ],
        "nbVisits": 0,
        "minSucc": -2,
        "asapTopoRank": 1,
        "alapTopoRank": 3
      }
    ],
    [
      668,
      {
        "name": "FR_f2",
        "nodeMemCost": -2,
        "tmpMemInc": 18,
        "predNodes": [
          638,
          644,
          652
        ],
        "succNodes": [
          660,
          676,
          639,
          645,
          646,
          653,
          654,
          669,
          661,
          677,
          670,
          662,
          678
        ],
        "nbVisits": 0,
        "minSucc": -27,
        "asapTopoRank": 3,
        "alapTopoRank": 5
      }
    ],
    [
      703,
      {
        "name": "FF_f9",
        "nodeMemCost": -2,
        "tmpMemInc": 18,
        "predNodes": [
          747,
          765,
          748,
          766,
          777,
          749,
          767,
          750,
          768,
          778,
          691
        ],
        "succNodes": [
          692,
          704,
          711,
          751,
          769,
          752,
          770,
          779,
          591,
          597,
          592,
          598,
          601,
          553,
          555,
          557,
          561,
          559,
          563,
          565,
          568,
          572,
          580,
          576,
          584,
          566,
          569,
          570,
          573,
          574
        ],
        "nbVisits": 0,
        "minSucc": -27,
        "asapTopoRank": 5,
        "alapTopoRank": 5
      }
    ],
    [
      710,
      {
        "name": "FG_f4",
        "nodeMemCost": 0,
        "tmpMemInc": 14,
        "predNodes": [
          745,
          763,
          746,
          764,
          776,
          689,
          701,
          690,
          702
        ],
        "succNodes": [],
        "nbVisits": 0,
        "minSucc": -2,
        "asapTopoRank": 3,
        "alapTopoRank": 3
      }
    ],
    [
      789,
      {
        "name": "FX_f1",
        "nodeMemCost": 0,
        "tmpMemInc": 24,
        "predNodes": [],
        "succNodes": [
          780,
          798
        ],
        "nbVisits": 0,
        "minSucc": -27,
        "asapTopoRank": 4,
        "alapTopoRank": 5
      }
    ],
    [
      792,
      {
        "name": "FX_f4",
        "nodeMemCost": -9,
        "tmpMemInc": 24,
        "predNodes": [
          790,
          781,
          799,
          917,
          899,
          935,
          1284,
          1203,
          1365,
          1527,
          1285,
          1204,
          1366,
          1528,
          1286,
          1205,
          1367,
          1529,
          791,
          782,
          800
        ],
        "succNodes": [
          783,
          801
        ],
        "nbVisits": 0,
        "minSucc": -3,
        "asapTopoRank": 7,
        "alapTopoRank": 7
      }
    ],
    [
      761,
      {
        "name": "EK_f9",
        "nodeMemCost": 2,
        "tmpMemInc": 12,
        "predNodes": [
          743
        ],
        "succNodes": [],
        "nbVisits": 0,
        "minSucc": -2,
        "asapTopoRank": 1,
        "alapTopoRank": 1
      }
    ],
    [
      916,
      {
        "name": "GA_f2",
        "nodeMemCost": -27,
        "tmpMemInc": 18,
        "predNodes": [
          915,
          897,
          933
        ],
        "succNodes": [
          898,
          934,
          1275,
          1194,
          1356,
          1518,
          1276,
          1195,
          1357,
          1519,
          1277,
          1196,
          1358,
          1520,
          1278,
          1197,
          1359,
          1521,
          1279,
          1198,
          1360,
          1522,
          1280,
          1199,
          1361,
          1523,
          1281,
          1200,
          1362,
          1524,
          1282,
          1201,
          1363,
          1525,
          1283,
          1202,
          1364,
          1526
        ],
        "nbVisits": 0,
        "minSucc": -9,
        "asapTopoRank": 6,
        "alapTopoRank": 6
      }
    ],
    [
      837,
      {
        "name": "CQ_f31",
        "nodeMemCost": 27,
        "tmpMemInc": 41,
        "predNodes": [
          1482,
          996,
          1077,
          1158,
          1483,
          997,
          1078,
          1159,
          1484,
          998,
          1079,
          1160,
          274,
          301,
          328,
          1485,
          999,
          1080,
          1161,
          1486,
          1000,
          1081,
          1162,
          1487,
          1001,
          1082,
          1163,
          275,
          302,
          329,
          1488,
          1002,
          1083,
          1164,
          1489,
          1003,
          1084,
          1165,
          1490,
          1004,
          1085,
          1166,
          276,
          303,
          330,
          220,
          221,
          222,
          232,
          238
        ],
        "succNodes": [
          838,
          839,
          871,
          889,
          840,
          841,
          842,
          872,
          890,
          187,
          193,
          150,
          152,
          154,
          158,
          156,
          160,
          188,
          194,
          198
        ],
        "nbVisits": 0,
        "minSucc": 0,
        "asapTopoRank": 2,
        "alapTopoRank": 2
      }
    ],
    [
      1437,
      {
        "name": "A_f1",
        "nodeMemCost": 123,
        "tmpMemInc": 141,
        "predNodes": [],
        "succNodes": [
          951,
          1032,
          1113,
          1438,
          952,
          1033,
          1114,
          1439,
          953,
          1034,
          1115,
          259,
          286,
          313,
          1440,
          954,
          1035,
          1116,
          1441,
          955,
          1036,
          1117,
          807,
          808,
          809,
          861,
          879,
          1442,
          956,
          1037,
          1118,
          260,
          287,
          314,
          1443,
          957,
          1038,
          1119,
          1444,
          958,
          1039,
          1120,
          1445,
          959,
          1040,
          1121,
          261,
          288,
          315,
          64,
          73,
          82,
          810,
          811,
          812,
          862,
          880,
          1446,
          960,
          1041,
          1122,
          1447,
          961,
          1042,
          1123,
          1448,
          962,
          1043,
          1124,
          262,
          289,
          316,
          1449,
          963,
          1044,
          1125,
          1450,
          964,
          1045,
          1126,
          813,
          814,
          815,
          863,
          881,
          516,
          522,
          528,
          1451,
          965,
          1046,
          1127,
          263,
          290,
          317,
          1452,
          966,
          1047,
          1128,
          1453,
          967,
          1048,
          1129,
          1454,
          968,
          1049,
          1130,
          264,
          291,
          318,
          65,
          74,
          83,
          816,
          817,
          818,
          864,
          882,
          735,
          753,
          736,
          754,
          771,
          737,
          755,
          738,
          756,
          772,
          683,
          695,
          684,
          696,
          707,
          1455,
          969,
          1050,
          1131,
          1456,
          970,
          1051,
          1132,
          1457,
          971,
          1052,
          1133,
          265,
          292,
          319,
          1458,
          972,
          1053,
          1134,
          1459,
          973,
          1054,
          1135,
          1460,
          974,
          1055,
          1136,
          266,
          293,
          320,
          1461,
          975,
          1056,
          1137,
          1462,
          976,
          1057,
          1138,
          1463,
          977,
          1058,
          1139,
          267,
          294,
          321,
          211,
          212,
          213,
          229,
          235,
          214,
          215,
          216,
          230,
          236,
          819,
          820,
          821,
          865,
          883,
          822,
          823,
          824,
          866,
          884,
          185,
          191,
          186,
          192,
          197,
          739,
          757,
          740,
          758,
          773,
          587,
          593,
          588,
          594,
          599,
          685,
          697,
          613,
          617,
          621,
          629,
          625,
          633,
          686,
          698,
          708,
          1464,
          978,
          1059,
          1140,
          1465,
          979,
          1060,
          1141,
          1466,
          980,
          1061,
          1142,
          268,
          295,
          322,
          1467,
          981,
          1062,
          1143,
          1468,
          982,
          1063,
          1144,
          1469,
          983,
          1064,
          1145,
          269,
          296,
          323,
          1470,
          984,
          1065,
          1146,
          1471,
          985,
          1066,
          1147,
          1472,
          986,
          1067,
          1148,
          270,
          297,
          324,
          66,
          75,
          84,
          67,
          76,
          85,
          825,
          826,
          827,
          867,
          885,
          828,
          829,
          830,
          868,
          886,
          741,
          759,
          742,
          760,
          774,
          1473,
          987,
          1068,
          1149,
          1474,
          988,
          1069,
          1150,
          1475,
          989,
          1070,
          1151,
          271,
          298,
          325,
          1476,
          990,
          1071,
          1152,
          1477,
          991,
          1072,
          1153,
          831,
          832,
          833,
          869,
          887,
          517,
          523,
          529,
          490,
          496,
          491,
          497,
          502,
          518,
          524,
          530,
          443,
          445,
          447,
          431,
          433,
          435,
          439,
          437,
          441
        ],
        "nbVisits": 0,
        "minSucc": 2,
        "asapTopoRank": 0,
        "alapTopoRank": 0
      }
    ]
  ],
  "edges": [
    [
      108,
      541,
      {
        "edgeMem": 0
      }
    ],
    [
      155,
      108,
      {
        "edgeMem": 1
      }
    ],
    [
      155,
      206,
      {
        "edgeMem": 0
      }
    ],
    [
      177,
      155,
      {
        "edgeMem": 0
      }
    ],
    [
      177,
      916,
      {
        "edgeMem": 0
      }
    ],
    [
      206,
      381,
      {
        "edgeMem": 0
      }
    ],
    [
      326,
      630,
      {
        "edgeMem": 6
      }
    ],
    [
      326,
      837,
      {
        "edgeMem": 0
      }
    ],
    [
      448,
      916,
      {
        "edgeMem": 3
      }
    ],
    [
      448,
      460,
      {
        "edgeMem": 0
      }
    ],
    [
      460,
      541,
      {
        "edgeMem": 3
      }
    ],
    [
      460,
      511,
      {
        "edgeMem": 0
      }
    ],
    [
      482,
      448,
      {
        "edgeMem": 4
      }
    ],
    [
      482,
      603,
      {
        "edgeMem": 0
      }
    ],
    [
      482,
      177,
      {
        "edgeMem": 0
      }
    ],
    [
      511,
      381,
      {
        "edgeMem": 0
      }
    ],
    [
      499,
      482,
      {
        "edgeMem": 16
      }
    ],
    [
      499,
      703,
      {
        "edgeMem": 0
      }
    ],
    [
      541,
      381,
      {
        "edgeMem": 0
      }
    ],
    [
      602,
      789,
      {
        "edgeMem": 4
      }
    ],
    [
      602,
      603,
      {
        "edgeMem": 0
      }
    ],
    [
      603,
      792,
      {
        "edgeMem": 0
      }
    ],
    [
      579,
      602,
      {
        "edgeMem": 6
      }
    ],
    [
      579,
      703,
      {
        "edgeMem": 0
      }
    ],
    [
      595,
      602,
      {
        "edgeMem": 4
      }
    ],
    [
      595,
      600,
      {
        "edgeMem": 0
      }
    ],
    [
      600,
      703,
      {
        "edgeMem": 0
      }
    ],
    [
      630,
      668,
      {
        "edgeMem": 0
      }
    ],
    [
      630,
      710,
      {
        "edgeMem": 0
      }
    ],
    [
      713,
      789,
      {
        "edgeMem": 8
      }
    ],
    [
      713,
      714,
      {
        "edgeMem": 0
      }
    ],
    [
      714,
      792,
      {
        "edgeMem": 0
      }
    ],
    [
      667,
      668,
      {
        "edgeMem": 4
      }
    ],
    [
      667,
      713,
      {
        "edgeMem": 0
      }
    ],
    [
      668,
      714,
      {
        "edgeMem": 0
      }
    ],
    [
      668,
      916,
      {
        "edgeMem": 0
      }
    ],
    [
      703,
      603,
      {
        "edgeMem": 0
      }
    ],
    [
      703,
      916,
      {
        "edgeMem": 0
      }
    ],
    [
      710,
      600,
      {
        "edgeMem": 2
      }
    ],
    [
      789,
      916,
      {
        "edgeMem": 6
      }
    ],
    [
      792,
      108,
      {
        "edgeMem": 0
      }
    ],
    [
      761,
      595,
      {
        "edgeMem": 2
      }
    ],
    [
      761,
      630,
      {
        "edgeMem": 0
      }
    ],
    [
      916,
      792,
      {
        "edgeMem": 0
      }
    ],
    [
      837,
      499,
      {
        "edgeMem": 3
      }
    ],
    [
      837,
      710,
      {
        "edgeMem": 0
      }
    ],
    [
      1437,
      579,
      {
        "edgeMem": 0
      }
    ],
    [
      1437,
      326,
      {
        "edgeMem": 0
      }
    ],
    [
      1437,
      761,
      {
        "edgeMem": 0
      }
    ],
    [
      1437,
      667,
      {
        "edgeMem": 0
      }
    ]
  ]
}