{
  "nodes": [
    [
      149,
      {
        "name": "AX_f3",
        "nodeMemCost": 45,
        "tmpMemInc": 272,
        "predNodes": [],
        "succNodes": [
          164,
          150,
          158,
          165,
          151,
          166,
          152,
          159,
          167,
          96,
          98,
          100,
          84,
          86,
          88,
          92,
          90,
          94,
          132,
          133,
          134,
          137,
          139,
          108,
          110,
          112,
          116,
          114,
          118,
          120,
          122,
          124,
          128,
          126,
          130,
          143,
          141,
          145
        ],
        "nbVisits": 0,
        "minSucc": -45,
        "asapTopoRank": 1,
        "alapTopoRank": 1
      }
    ],
    [
      153,
      {
        "name": "AX_f7",
        "nodeMemCost": -45,
        "tmpMemInc": 182,
        "predNodes": [],
        "succNodes": [
          168,
          154,
          160,
          169,
          155,
          170,
          156,
          161,
          171,
          97,
          99,
          101,
          78,
          79,
          80,
          82,
          81,
          83,
          104,
          102,
          106,
          135,
          136,
          138,
          140
        ],
        "nbVisits": 0,
        "minSucc": -3125,
        "asapTopoRank": 2,
        "alapTopoRank": 2
      }
    ],
    [
      236,
      {
        "name": "CP_f6",
        "nodeMemCost": -3125,
        "tmpMemInc": 252,
        "predNodes": [
          416,
          417,
          418,
          421,
          424,
          381,
          383,
          385,
          389,
          387,
          391,
          393,
          396,
          399,
          405,
          402,
          408,
          429,
          426,
          432,
          394,
          397,
          400,
          406,
          403,
          409,
          430,
          427,
          433,
          467,
          462,
          472,
          175,
          172,
          178,
          121,
          123,
          125,
          129,
          127,
          131,
          109,
          111,
          113,
          117,
          115,
          119,
          144,
          142,
          146,
          85,
          87,
          89,
          93,
          91,
          95,
          105,
          103,
          107,
          176,
          173,
          179,
          177,
          174,
          180,
          55,
          56,
          57,
          64,
          58,
          59,
          61,
          65,
          12,
          13,
          14,
          6,
          7,
          8,
          10,
          9,
          11,
          0,
          1,
          2,
          4,
          3,
          5,
          16,
          15,
          17,
          259,
          261,
          263,
          247,
          249,
          251,
          255,
          253,
          257,
          260,
          262,
          264,
          241,
          242,
          243,
          245,
          244,
          246,
          267,
          265,
          269,
          338,
          335,
          341,
          536,
          521,
          551,
          537,
          522,
          552,
          538,
          523,
          553,
          539,
          524,
          554,
          540,
          525,
          555,
          36,
          37,
          40,
          42,
          24,
          26,
          28,
          32,
          30,
          34,
          38,
          39,
          41,
          43,
          18,
          19,
          20,
          22,
          21,
          23,
          46,
          44,
          48,
          70,
          66,
          74,
          71,
          67,
          75,
          221,
          211,
          231,
          222,
          212,
          232,
          223,
          213,
          233,
          224,
          214,
          234,
          225,
          215,
          235,
          25,
          27,
          29,
          33,
          31,
          35,
          47,
          45,
          49,
          72,
          68,
          76,
          73,
          69,
          77,
          226,
          216
        ],
        "succNodes": [
          666,
          641,
          691,
          741,
          667,
          642,
          692,
          742,
          668,
          643,
          693,
          743,
          669,
          644,
          694,
          744,
          670,
          645,
          695,
          745,
          671,
          646,
          696,
          746,
          672,
          647,
          697,
          747,
          673,
          648,
          698,
          748,
          284,
          286,
          288,
          292,
          290,
          294,
          272,
          274,
          276,
          280,
          278,
          282,
          307,
          305,
          309,
          248,
          250,
          252,
          256,
          254,
          258,
          268,
          266,
          270,
          339,
          336,
          342,
          340,
          337,
          343,
          369,
          371,
          373,
          357,
          359,
          361,
          365,
          363,
          367,
          345,
          347,
          349,
          353,
          351,
          355,
          377,
          375,
          379,
          468,
          463,
          473,
          469,
          464,
          474,
          541,
          526,
          556,
          674,
          649,
          699,
          749,
          675,
          650,
          700,
          750,
          542,
          527,
          557,
          543,
          528,
          558,
          544,
          529,
          559,
          545,
          530,
          560,
          546,
          531,
          561,
          547,
          532,
          562,
          227,
          217,
          237,
          228,
          218,
          238,
          676,
          651,
          701,
          751,
          677,
          652,
          702,
          752,
          678,
          653,
          703,
          753,
          679,
          654,
          704,
          754,
          680,
          655,
          705,
          755,
          681,
          656,
          706,
          756,
          682,
          657,
          707,
          757,
          683,
          658,
          708,
          758,
          684,
          659,
          709,
          759,
          685,
          660,
          710,
          760,
          470,
          465,
          475,
          548,
          533,
          563,
          549,
          534,
          564,
          229,
          219,
          239,
          686,
          661,
          711,
          761,
          687,
          662,
          712,
          762,
          230,
          220,
          240,
          688,
          663,
          713,
          763,
          550,
          535,
          565,
          689,
          664,
          714,
          764,
          690,
          665,
          715,
          765
        ],
        "nbVisits": 0,
        "minSucc": 0,
        "asapTopoRank": 3,
        "alapTopoRank": 3
      }
    ],
    [
      295,
      {
        "name": "DO_f1",
        "nodeMemCost": 45,
        "tmpMemInc": 272,
        "predNodes": [],
        "succNodes": [
          296,
          297,
          300,
          302,
          271,
          273,
          275,
          279,
          277,
          281,
          283,
          285,
          287,
          291,
          289,
          293,
          306,
          304,
          308
        ],
        "nbVisits": 0,
        "minSucc": -45,
        "asapTopoRank": 1,
        "alapTopoRank": 1
      }
    ],
    [
      316,
      {
        "name": "CT_f7",
        "nodeMemCost": -45,
        "tmpMemInc": 182,
        "predNodes": [],
        "succNodes": [
          331,
          317,
          323,
          332,
          318,
          333,
          319,
          324,
          334,
          298,
          299,
          301,
          303
        ],
        "nbVisits": 0,
        "minSucc": -3125,
        "asapTopoRank": 2,
        "alapTopoRank": 2
      }
    ],
    [
      716,
      {
        "name": "A_f1",
        "nodeMemCost": 1875,
        "tmpMemInc": 2002,
        "predNodes": [],
        "succNodes": [
          566,
          591,
          616,
          717,
          567,
          592,
          617,
          476,
          491,
          506,
          718,
          568,
          593,
          618,
          181,
          191,
          201,
          719,
          569,
          594,
          619,
          477,
          492,
          507,
          434,
          443,
          452,
          720,
          570,
          595,
          620,
          478,
          493,
          508,
          182,
          192,
          202,
          310,
          325,
          311,
          320,
          326,
          147,
          162,
          148,
          157,
          163,
          721,
          571,
          596,
          621,
          722,
          572,
          597,
          622,
          723,
          573,
          598,
          623,
          183,
          193,
          203,
          724,
          574,
          599,
          624,
          479,
          494,
          509,
          435,
          444,
          453,
          480,
          495,
          510,
          436,
          445,
          454,
          410,
          411,
          412,
          419,
          422,
          392,
          395,
          398,
          404,
          401,
          407,
          725,
          575,
          600,
          625,
          184,
          194,
          204,
          481,
          496,
          511,
          312,
          327,
          313,
          321,
          328,
          726,
          576,
          601,
          626,
          727,
          577,
          602,
          627,
          728,
          578,
          603,
          628,
          185,
          195,
          205,
          50,
          51,
          52,
          62,
          53,
          54,
          60,
          63,
          729,
          579,
          604,
          629,
          730,
          580,
          605,
          630,
          186,
          196,
          206,
          482,
          497,
          512,
          437,
          446,
          455,
          483,
          498,
          513,
          484,
          499,
          514,
          438,
          447,
          456,
          314,
          329,
          315,
          322,
          330
        ],
        "nbVisits": 0,
        "minSucc": 45,
        "asapTopoRank": 0,
        "alapTopoRank": 0
      }
    ],
    [
      731,
      {
        "name": "A_f16",
        "nodeMemCost": 1250,
        "tmpMemInc": 1377,
        "predNodes": [],
        "succNodes": [
          581,
          606,
          631,
          732,
          582,
          607,
          632,
          485,
          500,
          515,
          439,
          448,
          457,
          413,
          414,
          415,
          420,
          423,
          380,
          382,
          384,
          388,
          386,
          390,
          428,
          425,
          431,
          733,
          583,
          608,
          633,
          187,
          197,
          207,
          734,
          584,
          609,
          634,
          735,
          585,
          610,
          635,
          188,
          198,
          208,
          368,
          370,
          372,
          344,
          346,
          348,
          352,
          350,
          354,
          356,
          358,
          360,
          364,
          362,
          366,
          376,
          374,
          378,
          466,
          461,
          471,
          736,
          586,
          611,
          636,
          737,
          587,
          612,
          637,
          738,
          588,
          613,
          638,
          189,
          199,
          209,
          739,
          589,
          614,
          639,
          740,
          590,
          615,
          640,
          190,
          200,
          210,
          486,
          501,
          516,
          487,
          502,
          517,
          440,
          449,
          458,
          488,
          503,
          518,
          489,
          504,
          519,
          441,
          450,
          459,
          490,
          505,
          520,
          442,
          451,
          460
        ],
        "nbVisits": 0,
        "minSucc": -45,
        "asapTopoRank": 1,
        "alapTopoRank": 1
      }
    ]
  ],
  "edges": [
    [
      149,
      153,
      {
        "edgeMem": 330
      }
    ],
    [
      153,
      236,
      {
        "edgeMem": 150
      }
    ],
    [
      295,
      316,
      {
        "edgeMem": 645
      }
    ],
    [
      316,
      236,
      {
        "edgeMem": 0
      }
    ],
    [
      716,
      295,
      {
        "edgeMem": 45
      }
    ],
    [
      716,
      731,
      {
        "edgeMem": 0
      }
    ],
    [
      716,
      149,
      {
        "edgeMem": 0
      }
    ],
    [
      731,
      316,
      {
        "edgeMem": 150
      }
    ],
    [
      731,
      153,
      {
        "edgeMem": 150
      }
    ]
  ]
}